EESchema Schematic File Version 4
EELAYER 26 0
EELAYER END
$Descr A3 16535 11693
encoding utf-8
Sheet 5 6
Title "PQWS Main board - MCU"
Date "2017-12-05"
Rev ""
Comp "Libre Space Foundation"
Comment1 ""
Comment2 ""
Comment3 ""
Comment4 ""
$EndDescr
Text HLabel 9100 4100 2    60   Input ~ 0
RxD
Text HLabel 9100 4000 2    60   Input ~ 0
TxD
Text HLabel 9100 3900 2    60   Input ~ 0
DD
Text HLabel 7700 5300 0    60   Input ~ 0
CMD
Text HLabel 7700 6700 0    60   Input ~ 0
CLK
Text HLabel 7700 6300 0    60   Input ~ 0
D0
Text HLabel 7700 6400 0    60   Input ~ 0
D1
Text HLabel 7700 6500 0    60   Input ~ 0
D2
Text HLabel 7700 6600 0    60   Input ~ 0
D3
Text HLabel 9100 4200 2    60   Input ~ 0
SD_DET
Text HLabel 7700 5700 0    60   Input ~ 0
RF_MISO
Text HLabel 7700 5800 0    60   Input ~ 0
RF_MOSI
Text HLabel 9100 6500 2    60   Input ~ 0
RF_SCK
Text HLabel 9100 4700 2    60   Input ~ 0
RF_IRQ
Text HLabel 9100 5000 2    60   Input ~ 0
CAN1TX
Text HLabel 9100 4900 2    60   Input ~ 0
CAN1RX
$Comp
L power:GND #PWR033
U 1 1 5A7DE5F9
P 8200 7500
F 0 "#PWR033" H 8200 7250 50  0001 C CNN
F 1 "GND" H 8200 7350 50  0000 C CNN
F 2 "" H 8200 7500 50  0001 C CNN
F 3 "" H 8200 7500 50  0001 C CNN
	1    8200 7500
	1    0    0    -1  
$EndComp
$Comp
L Device:C_Small C25
U 1 1 5A7DE7BC
P 10200 3200
F 0 "C25" H 10210 3270 50  0000 L CNN
F 1 "100nF" H 10210 3120 50  0000 L CNN
F 2 "Capacitor_SMD:C_0603_1608Metric_Pad1.05x0.95mm_HandSolder" H 10200 3200 50  0001 C CNN
F 3 "" H 10200 3200 50  0001 C CNN
F 4 "C0603C104K9RACTU" H 10200 3200 50  0001 C CNN "Part Number"
	1    10200 3200
	1    0    0    -1  
$EndComp
$Comp
L Device:CP1_Small C22
U 1 1 5A7DE85A
P 9300 3200
F 0 "C22" H 9310 3270 50  0000 L CNN
F 1 "4.7uF" H 9310 3120 50  0000 L CNN
F 2 "Capacitor_SMD:C_0603_1608Metric_Pad1.05x0.95mm_HandSolder" H 9300 3200 50  0001 C CNN
F 3 "" H 9300 3200 50  0001 C CNN
F 4 "GRM035R60J475ME15D" H 9300 3200 50  0001 C CNN "Part Number"
	1    9300 3200
	1    0    0    -1  
$EndComp
$Comp
L Device:CP1_Small C27
U 1 1 5A7DE885
P 9000 2550
F 0 "C27" H 9010 2620 50  0000 L CNN
F 1 "1uF" H 9010 2470 50  0000 L CNN
F 2 "Capacitor_SMD:C_0603_1608Metric_Pad1.05x0.95mm_HandSolder" H 9000 2550 50  0001 C CNN
F 3 "" H 9000 2550 50  0001 C CNN
F 4 "GRM188C70J105MA01D" H 9000 2550 50  0001 C CNN "Part Number"
	1    9000 2550
	1    0    0    -1  
$EndComp
$Comp
L Device:C_Small C26
U 1 1 5A7DE90E
P 8750 2550
F 0 "C26" H 8760 2620 50  0000 L CNN
F 1 "10nF" H 8760 2470 50  0000 L CNN
F 2 "Capacitor_SMD:C_0603_1608Metric_Pad1.05x0.95mm_HandSolder" H 8750 2550 50  0001 C CNN
F 3 "" H 8750 2550 50  0001 C CNN
F 4 "C0603C103K9RACTU" H 8750 2550 50  0001 C CNN "Part Number"
	1    8750 2550
	1    0    0    -1  
$EndComp
$Comp
L Device:C_Small C24
U 1 1 5A7DE939
P 9900 3200
F 0 "C24" H 9910 3270 50  0000 L CNN
F 1 "100nF" H 9910 3120 50  0000 L CNN
F 2 "Capacitor_SMD:C_0603_1608Metric_Pad1.05x0.95mm_HandSolder" H 9900 3200 50  0001 C CNN
F 3 "" H 9900 3200 50  0001 C CNN
F 4 "C0603C104K9RACTU" H 9900 3200 50  0001 C CNN "Part Number"
	1    9900 3200
	1    0    0    -1  
$EndComp
$Comp
L Device:C_Small C23
U 1 1 5A7DE985
P 9600 3200
F 0 "C23" H 9610 3270 50  0000 L CNN
F 1 "100nF" H 9610 3120 50  0000 L CNN
F 2 "Capacitor_SMD:C_0603_1608Metric_Pad1.05x0.95mm_HandSolder" H 9600 3200 50  0001 C CNN
F 3 "" H 9600 3200 50  0001 C CNN
F 4 "C0603C104K9RACTU" H 9600 3200 50  0001 C CNN "Part Number"
	1    9600 3200
	1    0    0    -1  
$EndComp
$Comp
L power:GND #PWR034
U 1 1 5A7DEA89
P 8750 2700
F 0 "#PWR034" H 8750 2450 50  0001 C CNN
F 1 "GND" H 8750 2550 50  0000 C CNN
F 2 "" H 8750 2700 50  0001 C CNN
F 3 "" H 8750 2700 50  0001 C CNN
	1    8750 2700
	1    0    0    -1  
$EndComp
Wire Wire Line
	8600 3600 8600 2400
Wire Wire Line
	8600 2400 8750 2400
Wire Wire Line
	8750 2700 8750 2650
Wire Wire Line
	9000 2650 9000 2700
Wire Wire Line
	9000 2700 8750 2700
Connection ~ 8750 2400
Wire Wire Line
	8750 2400 8750 2450
Wire Wire Line
	9000 2400 9000 2450
Wire Wire Line
	10200 3100 10200 3000
Wire Wire Line
	9300 3000 9600 3000
Wire Wire Line
	8300 3000 8300 3600
Wire Wire Line
	8400 3000 8400 3600
Wire Wire Line
	8500 3000 8500 3600
Connection ~ 8400 3000
Wire Wire Line
	9900 3000 9900 3100
Wire Wire Line
	9600 3000 9600 3100
Connection ~ 9900 3000
Wire Wire Line
	9300 3000 9300 3100
Connection ~ 9600 3000
Wire Wire Line
	9300 3450 9600 3450
Wire Wire Line
	10200 3450 10200 3300
Wire Wire Line
	9900 3300 9900 3450
Connection ~ 9900 3450
Wire Wire Line
	9600 3300 9600 3450
Connection ~ 9600 3450
$Comp
L power:GND #PWR035
U 1 1 5A7DED74
P 9300 3450
F 0 "#PWR035" H 9300 3200 50  0001 C CNN
F 1 "GND" H 9300 3300 50  0000 C CNN
F 2 "" H 9300 3450 50  0001 C CNN
F 3 "" H 9300 3450 50  0001 C CNN
	1    9300 3450
	1    0    0    -1  
$EndComp
$Comp
L Device:Battery_Cell BT1
U 1 1 5A7DF13D
P 6900 3000
F 0 "BT1" H 7000 3100 50  0000 L CNN
F 1 "LR621" H 7000 3000 50  0000 L CNN
F 2 "lsf-kicad-lib:KEYSTONE_3098" V 6900 3060 50  0001 C CNN
F 3 "https://www.mouser.com/ds/2/215/098-745922.pdf" V 6900 3060 50  0001 C CNN
F 4 "3098" H 6900 3000 50  0001 C CNN "Part Number"
	1    6900 3000
	1    0    0    -1  
$EndComp
$Comp
L power:GND #PWR037
U 1 1 5A7DF1A6
P 6900 3800
F 0 "#PWR037" H 6900 3550 50  0001 C CNN
F 1 "GND" H 6900 3650 50  0000 C CNN
F 2 "" H 6900 3800 50  0001 C CNN
F 3 "" H 6900 3800 50  0001 C CNN
	1    6900 3800
	1    0    0    -1  
$EndComp
Text HLabel 9100 4600 2    60   Input ~ 0
CAN1_EN
Wire Wire Line
	8750 2400 9000 2400
Wire Wire Line
	8300 3000 8400 3000
Wire Wire Line
	8400 3000 8500 3000
Wire Wire Line
	9900 3000 10200 3000
Wire Wire Line
	9600 3000 9900 3000
Wire Wire Line
	9900 3450 10200 3450
Wire Wire Line
	9600 3450 9900 3450
NoConn ~ 7700 6800
NoConn ~ 7700 6200
NoConn ~ 7700 6100
NoConn ~ 7700 6000
NoConn ~ 7700 5900
NoConn ~ 7700 5600
NoConn ~ 7700 5550
NoConn ~ 7700 5000
NoConn ~ 7700 5100
NoConn ~ 9100 4500
NoConn ~ 7700 5500
$Comp
L power:VCC #PWR032
U 1 1 5A8675BB
P 8750 2400
F 0 "#PWR032" H 8750 2250 50  0001 C CNN
F 1 "VCC" H 8767 2573 50  0000 C CNN
F 2 "" H 8750 2400 50  0001 C CNN
F 3 "" H 8750 2400 50  0001 C CNN
	1    8750 2400
	1    0    0    -1  
$EndComp
Wire Wire Line
	6900 2800 6900 2600
$Comp
L power:VCC #PWR036
U 1 1 5A868823
P 9300 3000
F 0 "#PWR036" H 9300 2850 50  0001 C CNN
F 1 "VCC" H 9317 3173 50  0000 C CNN
F 2 "" H 9300 3000 50  0001 C CNN
F 3 "" H 9300 3000 50  0001 C CNN
	1    9300 3000
	1    0    0    -1  
$EndComp
Connection ~ 9300 3000
Connection ~ 8750 2700
Wire Wire Line
	8700 3600 8700 3000
Wire Wire Line
	8700 3000 8500 3000
Connection ~ 8500 3000
$Comp
L power:+BATT #PWR041
U 1 1 5A86D1C4
P 6900 2600
F 0 "#PWR041" H 6900 2450 50  0001 C CNN
F 1 "+BATT" H 6750 2650 50  0000 C CNN
F 2 "" H 6900 2600 50  0001 C CNN
F 3 "" H 6900 2600 50  0001 C CNN
	1    6900 2600
	1    0    0    -1  
$EndComp
Connection ~ 6900 2600
$Comp
L power:PWR_FLAG #FLG01
U 1 1 5A874783
P 7150 2600
F 0 "#FLG01" H 7150 2675 50  0001 C CNN
F 1 "PWR_FLAG" H 7200 2650 50  0000 L CNN
F 2 "" H 7150 2600 50  0001 C CNN
F 3 "" H 7150 2600 50  0001 C CNN
	1    7150 2600
	1    0    0    -1  
$EndComp
Text HLabel 9100 4400 2    60   Input ~ 0
RST_TRIG
Wire Wire Line
	8200 7500 8200 7350
Wire Wire Line
	8200 7350 8300 7350
Wire Wire Line
	8300 7350 8300 7200
Connection ~ 8200 7350
Wire Wire Line
	8200 7350 8200 7200
Wire Wire Line
	8300 7350 8400 7350
Wire Wire Line
	8400 7350 8400 7200
Connection ~ 8300 7350
Wire Wire Line
	8400 7350 8500 7350
Wire Wire Line
	8500 7350 8500 7200
Connection ~ 8400 7350
Wire Wire Line
	8500 7350 8600 7350
Wire Wire Line
	8600 7350 8600 7200
Connection ~ 8500 7350
Wire Wire Line
	9300 3450 9300 3300
Connection ~ 9300 3450
Wire Wire Line
	7150 2600 6900 2600
Text HLabel 9100 5100 2    50   Input ~ 0
SWDIO
Text HLabel 9100 5200 2    50   Input ~ 0
SWCLK
Text HLabel 9100 5300 2    50   Input ~ 0
JTDI
Text HLabel 9100 5800 2    50   Input ~ 0
JTDO
Text HLabel 9100 5900 2    50   Input ~ 0
JTRST
Text HLabel 9100 4800 2    60   Input ~ 0
RF_Tx_EN
NoConn ~ 9100 4300
Connection ~ 7150 2600
Text HLabel 9100 3800 2    50   Input ~ 0
PA_PDet
$Comp
L Device:R R16
U 1 1 5AD7E8B8
P 7550 4150
F 0 "R16" H 7620 4196 50  0000 L CNN
F 1 "10K" H 7620 4105 50  0000 L CNN
F 2 "Resistor_SMD:R_0603_1608Metric_Pad1.05x0.95mm_HandSolder" V 7480 4150 50  0001 C CNN
F 3 "~" H 7550 4150 50  0001 C CNN
F 4 "RE0603BRE0710KL" H 0   0   50  0001 C CNN "Part Number"
	1    7550 4150
	1    0    0    -1  
$EndComp
$Comp
L power:GND #PWR0101
U 1 1 5AD7F2D2
P 7550 4350
F 0 "#PWR0101" H 7550 4100 50  0001 C CNN
F 1 "GND" H 7550 4200 50  0000 C CNN
F 2 "" H 7550 4350 50  0001 C CNN
F 3 "" H 7550 4350 50  0001 C CNN
	1    7550 4350
	1    0    0    -1  
$EndComp
Wire Wire Line
	7550 4300 7550 4350
Text Label 7550 4000 2    50   ~ 0
BOOT0
$Comp
L power:VCC #PWR0103
U 1 1 5AD82062
P 7600 3350
F 0 "#PWR0103" H 7600 3200 50  0001 C CNN
F 1 "VCC" H 7617 3523 50  0000 C CNN
F 2 "" H 7600 3350 50  0001 C CNN
F 3 "" H 7600 3350 50  0001 C CNN
	1    7600 3350
	1    0    0    -1  
$EndComp
Wire Wire Line
	7600 3350 7600 3400
Wire Wire Line
	7600 3800 7700 3800
$Comp
L Device:Battery_Cell BT2
U 1 1 5ADF1457
P 6900 3500
F 0 "BT2" H 7000 3600 50  0000 L CNN
F 1 "LR621" H 7000 3500 50  0000 L CNN
F 2 "lsf-kicad-lib:KEYSTONE_3098" V 6900 3560 50  0001 C CNN
F 3 "https://www.mouser.com/ds/2/215/098-745922.pdf" V 6900 3560 50  0001 C CNN
F 4 "3098" H 6900 3500 50  0001 C CNN "Part Number"
	1    6900 3500
	1    0    0    -1  
$EndComp
$Comp
L Device:Jumper J5
U 1 1 5ADF2275
P 6600 3450
F 0 "J5" V 6650 3650 50  0000 R CNN
F 1 "Single Battery" V 6500 4100 50  0000 R CNN
F 2 "Jumper:SolderJumper-2_P1.3mm_Open_TrianglePad1.0x1.5mm" V 6530 3450 50  0001 C CNN
F 3 "~" H 6600 3450 50  0001 C CNN
F 4 "" H 0   0   50  0001 C CNN "Part Number"
	1    6600 3450
	0    -1   -1   0   
$EndComp
Wire Wire Line
	6900 3600 6900 3750
Wire Wire Line
	6600 3750 6900 3750
Connection ~ 6900 3750
Wire Wire Line
	6900 3750 6900 3800
Connection ~ 6900 3150
Wire Wire Line
	6900 3100 6900 3150
Wire Wire Line
	6600 3150 6900 3150
Wire Wire Line
	6900 3150 6900 3300
Wire Wire Line
	7550 4000 7700 4000
Wire Notes Line
	7250 3100 7250 3800
Wire Notes Line
	7250 3800 5900 3800
Wire Notes Line
	5900 3800 5900 3100
Wire Notes Line
	5900 3100 7250 3100
Text Notes 5900 3050 0    50   ~ 0
Optional dual battery
$Comp
L Device:R R3
U 1 1 5AE24072
P 7600 3550
F 0 "R3" H 7670 3596 50  0000 L CNN
F 1 "10K" H 7670 3505 50  0000 L CNN
F 2 "Resistor_SMD:R_0603_1608Metric_Pad1.05x0.95mm_HandSolder" V 7530 3550 50  0001 C CNN
F 3 "~" H 7600 3550 50  0001 C CNN
F 4 "RE0603BRE0710KL" H 0   0   50  0001 C CNN "Part Number"
	1    7600 3550
	1    0    0    -1  
$EndComp
Wire Wire Line
	7600 3700 7600 3800
$Comp
L MCU_ST_STM32L4:STM32L476RGTx U1
U 1 1 5AE280F4
P 8400 5400
F 0 "U1" H 8400 5200 50  0000 C CNN
F 1 "STM32L476RGTx" H 8400 5050 50  0000 C CNN
F 2 "Package_QFP:LQFP-64_10x10mm_P0.5mm" H 7800 3700 50  0001 R CNN
F 3 "http://www.st.com/st-web-ui/static/active/en/resource/technical/document/datasheet/DM00108832.pdf" H 8400 5400 50  0001 C CNN
F 4 "STM32L476RGT6" H 0   0   50  0001 C CNN "Part Number"
	1    8400 5400
	1    0    0    -1  
$EndComp
NoConn ~ 9100 5500
NoConn ~ 9100 5700
NoConn ~ 9100 5600
NoConn ~ 9100 6000
NoConn ~ 9100 6100
NoConn ~ 9100 6200
NoConn ~ 9100 6300
NoConn ~ 9100 6400
NoConn ~ 9100 6600
NoConn ~ 9100 6700
NoConn ~ 9100 6800
NoConn ~ 9100 6900
NoConn ~ 9100 7000
Wire Wire Line
	9300 3000 8700 3000
Connection ~ 8700 3000
Wire Wire Line
	8200 3600 8200 2600
Wire Wire Line
	7150 2600 8200 2600
Text HLabel 7600 3800 0    50   Input ~ 0
NRST
Wire Wire Line
	7700 6900 6850 6900
Wire Wire Line
	6850 6900 6850 6700
Text Label 7500 6900 2    50   ~ 0
RCC_OSC32_IN
Wire Wire Line
	6400 7000 7700 7000
Text Label 7500 7000 2    50   ~ 0
RCC_OSC32_OUT
$Comp
L Device:Crystal Y1
U 1 1 5C4E8944
P 6400 6850
F 0 "Y1" V 6354 6981 50  0000 L CNN
F 1 "32768Hz" V 6400 6350 50  0000 L CNN
F 2 "Crystal:Crystal_SMD_3215-2Pin_3.2x1.5mm" H 6400 6850 50  0001 C CNN
F 3 "~" H 6400 6850 50  0001 C CNN
F 4 "ABS07-32.768kHz" V 6400 6850 50  0001 C CNN "Part Number"
	1    6400 6850
	0    1    1    0   
$EndComp
Wire Wire Line
	6850 6700 6400 6700
$Comp
L Device:C C34
U 1 1 5C4EAE89
P 6400 7250
F 0 "C34" H 6515 7296 50  0000 L CNN
F 1 "7pF" H 6515 7205 50  0000 L CNN
F 2 "Capacitor_SMD:C_0603_1608Metric" H 6438 7100 50  0001 C CNN
F 3 "~" H 6400 7250 50  0001 C CNN
	1    6400 7250
	1    0    0    -1  
$EndComp
$Comp
L Device:C C7
U 1 1 5C4EAEE1
P 6400 6450
F 0 "C7" H 6515 6496 50  0000 L CNN
F 1 "7pF" H 6515 6405 50  0000 L CNN
F 2 "Capacitor_SMD:C_0603_1608Metric" H 6438 6300 50  0001 C CNN
F 3 "~" H 6400 6450 50  0001 C CNN
	1    6400 6450
	1    0    0    -1  
$EndComp
$Comp
L power:GND #PWR060
U 1 1 5C4EAF66
P 6400 7500
F 0 "#PWR060" H 6400 7250 50  0001 C CNN
F 1 "GND" H 6405 7327 50  0000 C CNN
F 2 "" H 6400 7500 50  0001 C CNN
F 3 "" H 6400 7500 50  0001 C CNN
	1    6400 7500
	1    0    0    -1  
$EndComp
$Comp
L power:GND #PWR057
U 1 1 5C4EAF96
P 6400 6200
F 0 "#PWR057" H 6400 5950 50  0001 C CNN
F 1 "GND" H 6405 6027 50  0000 C CNN
F 2 "" H 6400 6200 50  0001 C CNN
F 3 "" H 6400 6200 50  0001 C CNN
	1    6400 6200
	-1   0    0    1   
$EndComp
Wire Wire Line
	6400 6200 6400 6300
Wire Wire Line
	6400 6600 6400 6700
Connection ~ 6400 6700
Wire Wire Line
	6400 7000 6400 7100
Connection ~ 6400 7000
Wire Wire Line
	6400 7400 6400 7500
Text Label 5750 7450 0    50   ~ 0
XTAL_GND_Plane
$Comp
L Device:Net-Tie_2 NT1
U 1 1 5C577670
P 5650 7450
F 0 "NT1" H 5650 7628 50  0000 C CNN
F 1 "Net-Tie_2" H 5650 7537 50  0000 C CNN
F 2 "NetTie:NetTie-2_THT_Pad0.3mm" H 5650 7450 50  0001 C CNN
F 3 "~" H 5650 7450 50  0001 C CNN
	1    5650 7450
	1    0    0    -1  
$EndComp
$Comp
L power:GND #PWR0106
U 1 1 5C578D90
P 5550 7550
F 0 "#PWR0106" H 5550 7300 50  0001 C CNN
F 1 "GND" H 5555 7377 50  0000 C CNN
F 2 "" H 5550 7550 50  0001 C CNN
F 3 "" H 5550 7550 50  0001 C CNN
	1    5550 7550
	1    0    0    -1  
$EndComp
Wire Wire Line
	5550 7550 5550 7450
$Comp
L power:PWR_FLAG #FLG?
U 1 1 5C582212
P 5750 7450
F 0 "#FLG?" H 5750 7525 50  0001 C CNN
F 1 "PWR_FLAG" H 5550 7650 50  0000 C CNN
F 2 "" H 5750 7450 50  0001 C CNN
F 3 "~" H 5750 7450 50  0001 C CNN
	1    5750 7450
	-1   0    0    1   
$EndComp
$EndSCHEMATC
