<Qucs Schematic 0.0.19>
<Properties>
  <View=26,96,2162,2689,0.902264,0,540>
  <Grid=10,10,1>
  <DataSet=pqws_transceiver.dat>
  <DataDisplay=pqws_transceiver.dpl>
  <OpenDisplay=1>
  <Script=pqws_transceiver.m>
  <RunScript=0>
  <showFrame=0>
  <FrameText0=Title>
  <FrameText1=Drawn By:>
  <FrameText2=Date:>
  <FrameText3=Revision:>
</Properties>
<Symbol>
</Symbol>
<Components>
  <L LC1 1 320 1050 -62 -26 1 1 "100nH" 1 "" 0>
  <C CT1 1 470 1000 -26 -63 0 2 "4.3 pF" 1 "" 0 "neutral" 0>
  <L LT1 1 550 1000 -26 -48 1 0 "43 nH" 1 "" 0>
  <L LF1 1 700 1000 -26 -48 0 2 "4.7 nH" 1 "" 0>
  <C CA1 0 750 1050 25 -26 1 3 "5.1 pF" 1 "" 0 "neutral" 0>
  <C CA2 1 650 1050 -83 -26 1 1 "5.6 pF" 1 "" 0 "neutral" 0>
  <GND * 1 320 1100 0 0 0 0>
  <GND * 1 400 1100 0 0 0 0>
  <GND * 1 700 1100 0 0 0 0>
  <C CC1 0 400 1060 25 -26 0 1 "1 pF" 1 "" 0 "neutral" 0>
  <GND * 1 1260 1100 0 0 0 0>
  <L L4 0 1200 1060 -71 -26 1 1 "22 nH" 1 "" 0>
  <L L5 0 1250 1000 -26 -48 1 0 "5.6 nH" 1 "" 0>
  <.SP SP1 1 160 130 0 76 0 0 "log" 1 "300MHz" 1 "600MHz" 1 "100000" 1 "no" 0 "2" 0 "1" 0 "yes" 0 "yes" 0>
  <GND * 1 1030 1100 0 0 0 0>
  <L L1 0 960 1000 -26 -48 1 0 "3.9 nH" 1 "" 0>
  <Pac ANTP2 1 160 690 -94 -26 1 1 "2" 1 "50 Ohm" 1 "0 dBm" 0 "1 GHz" 0 "26.85" 0>
  <SUBST Subst1 1 390 160 -30 24 0 0 "4.5" 1 "0.2mm" 1 "70 um" 1 "0.02" 1 "1.72e-8" 1 "0" 1>
  <Eqn Eqn1 1 580 150 -28 15 0 0 "dBS31=dB(S[3,1])" 1 "dBS23=dB(S[2,3])" 1 "dBS13=dB(S[1,3])" 1 "dBS32=dB(S[3,2])" 1 "yes" 0>
  <Eqn Eqn2 1 580 280 -28 15 0 0 "dBS11=dB(S[1,1])" 1 "dBS33=dB(S[3,3])" 1 "dBS22=dB(S[2,2])" 1 "yes" 0>
  <Eqn SWR2 1 830 330 -28 15 0 0 "absS22=abs(S[2,2])" 1 "swr2=(1+absS22)/(1-absS22)" 1 "yes" 0>
  <Eqn SWR3 1 830 240 -28 15 0 0 "absS33=abs(S[3,3])" 1 "swr3=(1+absS33)/(1-absS33)" 1 "yes" 0>
  <Eqn SWR1 1 830 150 -28 15 0 0 "absS11=abs(S[1,1])" 1 "swr1=(1+absS11)/(1-absS11)" 1 "yes" 0>
  <L LB1 1 1000 630 -26 -48 0 2 "27 nH" 1 "" 0>
  <C CB1 1 1000 750 -26 -63 0 2 "5.1 pF" 1 "" 0 "neutral" 0>
  <L LB2 1 890 790 10 -26 0 1 "27 nH" 1 "" 0>
  <GND * 1 850 840 0 0 0 0>
  <C CM2 1 820 780 -83 -26 1 1 "5.6 pF" 1 "" 0 "neutral" 0>
  <C CC2 0 500 590 17 -26 0 1 "1 pF" 1 "" 0 "neutral" 0>
  <GND * 1 470 520 0 0 0 2>
  <L LC2 1 440 590 -80 -26 1 1 "100 nH" 1 "" 0>
  <MVIA MS3 1 420 520 -120 -23 0 2 "Subst1" 1 "0.2 mm" 1 "26.85" 0>
  <MVIA MS2 1 860 530 -120 -23 0 2 "Subst1" 1 "0.2 mm" 1 "26.85" 0>
  <L LT2 1 750 630 -26 -48 1 0 "43 nH" 1 "" 0>
  <C CT3 1 640 630 -26 -55 0 2 "4.3 pF" 1 "" 0 "neutral" 0>
  <C CT2 1 610 750 -26 -63 0 2 "4.3 pF" 1 "" 0 "neutral" 0>
  <L LT3 1 710 750 -26 -48 1 0 "43 nH" 1 "" 0>
  <MVIA MS1 1 950 840 20 0 0 0 "Subst1" 1 "0.2 mm" 1 "26.85" 0>
  <L LC3 1 440 790 -62 -26 1 1 "100nH" 1 "" 0>
  <C CC3 0 490 790 25 -26 0 1 "1 pF" 1 "" 0 "neutral" 0>
  <MVIA MS4 1 530 840 20 0 0 0 "Subst1" 1 "0.2 mm" 1 "26.85" 0>
  <GND * 1 470 840 0 0 0 0>
  <Pac ANTP1 1 160 1050 -94 -26 1 1 "1" 1 "50 Ohm" 1 "0 dBm" 0 "1 GHz" 0 "26.85" 0>
  <GND * 1 160 1090 0 0 0 0>
  <GND * 1 1690 910 0 0 0 0>
  <MVIA MS5 1 1740 910 20 0 0 0 "Subst1" 1 "0.2 mm" 1 "26.85" 0>
  <GND * 1 1880 890 0 0 0 0>
  <SPfile X1 1 1690 820 -26 -89 1 2 "/home/azisi/Documents/pqws/pqws-main-hw/qucs/models/SKY13350_3V_Input_Output1.s3p" 0 "rectangular" 0 "linear" 0 "open" 0 "3" 0>
  <CLIN CL2 1 1570 690 -26 28 0 0 "Subst1" 1 "3 mm" 1 "4 mm" 1 "10 mm" 1 "Air" 0 "yes" 0>
  <MLIN MS10 1 240 630 -26 -91 0 2 "Subst1" 1 "0.35 mm" 1 "4.5 mm" 1 "Hammerstad" 0 "Kirschning" 0 "26.85" 0>
  <MLIN MS11 5 560 630 -26 15 0 0 "Subst1" 0 "0.35 mm" 0 "1.6 mm" 0 "Hammerstad" 0 "Kirschning" 0 "26.85" 0>
  <C CM1 1 890 590 17 -26 0 1 "11 pF" 1 "" 0 "neutral" 0>
  <GND * 1 880 530 0 0 0 2>
  <CLIN CL6 1 240 750 -26 28 0 0 "Subst1" 1 "3 mm" 1 "4 mm" 1 "10 mm" 1 "Air" 0 "yes" 0>
  <CLIN CL1 1 1330 690 -26 28 0 0 "Subst1" 1 "3 mm" 1 "4 mm" 1 "10 mm" 1 "Air" 0 "yes" 0>
  <C CSW1 1 1450 690 -26 -55 0 2 "220 pF" 1 "" 0 "neutral" 0>
  <MLIN MS12 1 220 1000 -26 -91 0 2 "Subst1" 1 "0.335 mm" 1 "4.5 mm" 1 "Hammerstad" 0 "Kirschning" 0 "26.85" 0>
  <MVIA MS9 5 270 1090 -20 0 1 2 "Subst1" 0 "0.6 mm" 0 "26.85" 0>
  <MVIA MS8 5 770 1100 20 0 0 0 "Subst1" 0 "0.6 mm" 0 "26.85" 0>
  <CLIN CL4 0 1500 1000 -26 -123 1 0 "Subst1" 1 "0.335 mm" 1 "0.2 mm" 1 "2.4 mm" 1 "Metal" 0 "yes" 0>
  <Pac ANTP3 1 1880 840 18 -26 0 1 "3" 1 "50 Ohm" 1 "0 dBm" 0 "1 GHz" 0 "26.85" 0>
  <Pac ANTP4 1 910 1050 18 -26 0 1 "4" 1 "50 Ohm" 1 "0 dBm" 0 "1 GHz" 0 "26.85" 0>
  <GND * 1 910 1100 0 0 0 0>
  <C C2 0 1310 1060 25 -26 0 1 "18 pF" 1 "" 0 "neutral" 0>
  <SPfile PA 0 1030 1000 -26 -59 0 0 "/home/azisi/Documents/pqws/pqws-main-hw/qucs/models/MMZ09332B_SP.s2p" 0 "rectangular" 0 "linear" 0 "open" 0 "2" 0>
  <Eqn SWR4 1 1120 160 -28 15 0 0 "absS44=abs(S[4,4])" 1 "dBS44=S[4,4]" 1 "swr4=(1+absS44)/(1-absS44)" 1 "yes" 0>
  <C C1 0 1100 1000 -26 -63 0 2 "220 pF" 1 "" 0 "neutral" 0>
  <CLIN CL5 1 850 1000 -26 -123 1 0 "Subst1" 1 "0.335 mm" 1 "0.2 mm" 1 "10.7 mm" 1 "Metal" 0 "yes" 0>
  <C CF1 1 700 930 -26 -63 0 2 "18 pF" 1 "" 0 "neutral" 0>
</Components>
<Wires>
  <320 1080 320 1090 "" 0 0 0 "">
  <500 1000 520 1000 "" 0 0 0 "">
  <650 930 670 930 "" 0 0 0 "">
  <580 1000 650 1000 "" 0 0 0 "">
  <650 1000 670 1000 "" 0 0 0 "">
  <650 930 650 1000 "" 0 0 0 "">
  <730 930 750 930 "" 0 0 0 "">
  <730 1000 750 1000 "" 0 0 0 "">
  <750 930 750 1000 "" 0 0 0 "">
  <650 1000 650 1020 "" 0 0 0 "">
  <750 1000 750 1020 "" 0 0 0 "">
  <650 1080 650 1100 "" 0 0 0 "">
  <650 1100 700 1100 "" 0 0 0 "">
  <750 1080 750 1100 "" 0 0 0 "">
  <320 1000 320 1020 "" 0 0 0 "">
  <700 1100 750 1100 "" 0 0 0 "">
  <320 1000 400 1000 "" 0 0 0 "">
  <400 1000 440 1000 "" 0 0 0 "">
  <400 1000 400 1030 "" 0 0 0 "">
  <400 1090 400 1100 "" 0 0 0 "">
  <1200 1000 1200 1030 "" 0 0 0 "">
  <1200 1090 1200 1100 "" 0 0 0 "">
  <1200 1100 1260 1100 "" 0 0 0 "">
  <1200 1000 1220 1000 "" 0 0 0 "">
  <1280 1000 1310 1000 "" 0 0 0 "">
  <1720 850 1830 850 "" 0 0 0 "">
  <890 750 970 750 "" 0 0 0 "">
  <890 750 890 760 "" 0 0 0 "">
  <850 840 890 840 "" 0 0 0 "">
  <820 750 890 750 "" 0 0 0 "">
  <820 840 850 840 "" 0 0 0 "">
  <820 810 820 840 "" 0 0 0 "">
  <500 540 500 560 "" 0 0 0 "">
  <500 620 500 630 "" 0 0 0 "">
  <440 630 500 630 "" 0 0 0 "">
  <440 540 470 540 "" 0 0 0 "">
  <440 540 440 560 "" 0 0 0 "">
  <440 620 440 630 "" 0 0 0 "">
  <470 540 500 540 "" 0 0 0 "">
  <470 520 470 540 "" 0 0 0 "">
  <440 520 470 520 "" 0 0 0 "">
  <780 630 890 630 "" 0 0 0 "">
  <670 630 720 630 "" 0 0 0 "">
  <740 750 820 750 "" 0 0 0 "">
  <640 750 680 750 "" 0 0 0 "">
  <890 820 890 840 "" 0 0 0 "">
  <890 840 930 840 "" 0 0 0 "">
  <440 820 440 840 "" 0 0 0 "">
  <440 840 470 840 "" 0 0 0 "">
  <490 820 490 840 "" 0 0 0 "">
  <490 750 580 750 "" 0 0 0 "">
  <490 750 490 760 "" 0 0 0 "">
  <440 750 490 750 "" 0 0 0 "">
  <440 750 440 760 "" 0 0 0 "">
  <490 840 510 840 "" 0 0 0 "">
  <470 840 490 840 "" 0 0 0 "">
  <1030 630 1080 630 "" 0 0 0 "">
  <1080 630 1080 690 "" 0 0 0 "">
  <1030 750 1080 750 "" 0 0 0 "">
  <160 1080 160 1090 "" 0 0 0 "">
  <250 1000 320 1000 "" 0 0 0 "">
  <160 1000 160 1020 "" 0 0 0 "">
  <160 1000 190 1000 "" 0 0 0 "">
  <320 1090 320 1100 "" 0 0 0 "">
  <1690 880 1690 910 "" 0 0 0 "">
  <1690 910 1720 910 "" 0 0 0 "">
  <1630 790 1660 790 "" 0 0 0 "">
  <1080 690 1080 750 "" 0 0 0 "">
  <1830 690 1830 850 "" 0 0 0 "">
  <1600 690 1830 690 "" 0 0 0 "">
  <160 630 160 660 "" 0 0 0 "">
  <160 630 210 630 "" 0 0 0 "">
  <270 630 440 630 "" 0 0 0 "">
  <590 630 610 630 "" 0 0 0 "">
  <500 630 530 630 "" 0 0 0 "">
  <890 630 970 630 "" 0 0 0 "">
  <890 620 890 630 "" 0 0 0 "">
  <890 530 890 560 "" 0 0 0 "">
  <880 530 890 530 "" 0 0 0 "">
  <270 750 440 750 "" 0 0 0 "">
  <160 720 160 750 "" 0 0 0 "">
  <160 750 210 750 "" 0 0 0 "">
  <290 1090 320 1090 "" 0 0 0 "">
  <1080 690 1300 690 "" 0 0 0 "">
  <1360 690 1420 690 "" 0 0 0 "">
  <1480 690 1540 690 "" 0 0 0 "">
  <1630 790 1630 1000 "" 0 0 0 "">
  <1530 1000 1630 1000 "" 0 0 0 "">
  <1310 1000 1470 1000 "" 0 0 0 "">
  <1880 870 1880 890 "" 0 0 0 "">
  <1720 790 1880 790 "" 0 0 0 "">
  <1880 790 1880 810 "" 0 0 0 "">
  <910 1000 930 1000 "" 0 0 0 "">
  <910 1000 910 1020 "" 0 0 0 "">
  <910 1080 910 1100 "" 0 0 0 "">
  <1310 1000 1310 1030 "" 0 0 0 "">
  <1260 1100 1310 1100 "" 0 0 0 "">
  <1310 1090 1310 1100 "" 0 0 0 "">
  <1030 1030 1030 1100 "" 0 0 0 "">
  <990 1000 1000 1000 "" 0 0 0 "">
  <1060 1000 1070 1000 "" 0 0 0 "">
  <1130 1000 1200 1000 "" 0 0 0 "">
  <880 1000 910 1000 "" 0 0 0 "">
  <750 1000 820 1000 "" 0 0 0 "">
  <160 750 160 750 "ANTN" 90 770 0 "">
</Wires>
<Diagrams>
  <Rect 260 2098 1173 338 3 #c0c0c0 1 00 1 3e+08 2e+07 6e+08 1 -120 20 26.4812 1 -1 0.5 1 315 0 225 "" "" "">
	<"dBS33" #ff0000 0 3 0 0 0>
	<"dBS11" #ff00ff 0 3 0 0 0>
	<"dBS13" #00ff00 0 3 0 0 0>
	<"dBS31" #0000ff 0 3 0 0 0>
	  <Mkr 4.33379e+08 562 -261 3 0 0>
	  <Mkr 4.06523e+08 227 -270 3 0 0>
  </Rect>
  <Rect 260 1654 1159 424 3 #c0c0c0 1 00 1 3e+08 2e+07 6e+08 1 -120 20 13.0455 1 -1 0.2 1 315 0 225 "" "" "">
	<"dBS32" #0000ff 0 3 0 0 0>
	  <Mkr 4.33436e+08 476 -172 3 0 0>
	<"dBS33" #ff0000 0 3 0 0 0>
	<"dBS22" #ff00ff 0 3 0 0 0>
	<"dBS23" #00ff00 0 3 0 0 0>
  </Rect>
  <Rect 260 2556 1185 326 3 #c0c0c0 1 00 1 3e+08 2e+07 6e+08 0 0 0.5 5 1 -1 0.5 1 315 0 225 "" "" "">
	<"swr1" #0000ff 0 3 0 0 0>
	  <Mkr 3.8747e+08 356 -222 3 0 0>
	<"swr4" #ff0000 0 3 0 0 0>
	  <Mkr 4.33291e+08 607 -48 3 0 0>
	<"swr3" #ff00ff 0 3 0 0 0>
	<"swr2" #00ff00 0 3 0 0 0>
  </Rect>
</Diagrams>
<Paintings>
  <Text 1570 610 12 #000000 0 "output-1 in s-parameters of rf switch is TX-PA, port-2\noutput-2 in s-parameters of rf switch is RX, port-3\n ">
  <Text 1480 1440 12 #000000 0 "RX\n ">
  <Text 1480 1910 12 #000000 0 "TX\n ">
  <Text 1490 2350 12 #000000 0 "SWR1, SWR3 -> TX\nSWR1, SWR2 -> RX\n ">
</Paintings>
